<?xml version="1.0" encoding="utf-8"?>
<!-- Generated by IcoMoon.io -->
<!DOCTYPE svg PUBLIC "-//W3C//DTD SVG 1.1//EN" "http://www.w3.org/Graphics/SVG/1.1/DTD/svg11.dtd">
<svg version="1.1" xmlns="http://www.w3.org/2000/svg" xmlns:xlink="http://www.w3.org/1999/xlink" width="32" height="32" viewBox="0 0 32 32">
<path d="
M2 6v8h6v-2h-4v-4h4v-2z
M8 6v8h2v-2h4v18h10v2h2v-8h-2v2h-6v-8h6v2h2v-8h-2v2h-6v-8h6v2h2v-8h-2v2h-10v6h-4v-2z
M26 0h6v8h-6v-2h4v-4h-4z
M26 12h6v8h-6v-2h4v-4h-4z
M26 24h6v8h-6v-2h4v-4h-4z
" fill="#787878"></path>
</svg>
