<?xml version="1.0" encoding="utf-8"?>
<!-- Generated by IcoMoon.io -->
<!DOCTYPE svg PUBLIC "-//W3C//DTD SVG 1.1//EN" "http://www.w3.org/Graphics/SVG/1.1/DTD/svg11.dtd">
<svg version="1.1" xmlns="http://www.w3.org/2000/svg" xmlns:xlink="http://www.w3.org/1999/xlink" width="32" height="32" viewBox="0 0 32 32">
<path d="
M2 2h26v4h-26z
M2 9h23v4h-23z
M2 16h26v4h-26z
M2 23h11v4h-11z
" fill="#787878"></path>
<path d="M15 12l7 7 7-7 3 3-7 7 7 7-3 3-7-7-7 7-3-3 7-7-7-7z" fill="#FF0000"></path>
</svg>
